Label,# Samples,Average,Median,90% Line,95% Line,99% Line,Min,Max,Error %,Throughput,Received KB/sec,Sent KB/sec
http://20.50.171.10:9966/petclinic/api/vets,160,75,75,78,79,83,70,89,0.000%,9.20598,13.95,2.30
Test,160,75,75,78,79,83,70,89,0.000%,9.20545,13.95,2.30
TOTAL,320,75,75,78,79,88,70,89,0.000%,18.41091,27.90,4.60
