Label,# Samples,Average,Median,90% Line,95% Line,99% Line,Min,Max,Error %,Throughput,Received KB/sec,Sent KB/sec
http://20.50.171.10:9966/petclinic/api/specialties,320,60,49,78,83,274,34,632,0.000%,18.09238,27.10,5.32
Test,160,121,113,121,124,338,104,667,0.000%,9.04568,27.10,5.32
TOTAL,480,81,76,115,119,312,34,667,0.000%,27.13704,54.20,10.64
