Label,# Samples,Average,Median,90% Line,95% Line,99% Line,Min,Max,Error %,Throughput,Received KB/sec,Sent KB/sec
http://20.50.171.10:9966/petclinic/api/specialties,720,58,52,78,79,87,34,632,0.000%,27.36706,72.24,8.04
Test,360,116,113,118,122,137,104,667,0.000%,13.68249,72.24,8.04
TOTAL,1080,77,76,115,117,129,34,667,0.000%,41.04747,144.47,16.09
