Label,# Samples,Average,Median,90% Line,95% Line,99% Line,Min,Max,Error %,Throughput,Received KB/sec,Sent KB/sec
http://20.50.171.10:9966/petclinic/api/pettypes,10,167,160,192,192,200,149,200,0.000%,9.53289,455.91,2.42
http://20.50.171.10:9966/petclinic/api/pettypes/12643,10,37,38,39,39,42,35,42,100.000%,10.83424,2.70,3.72
Test,10,205,198,230,230,238,184,238,100.000%,9.20810,442.67,5.50
TOTAL,30,136,160,202,230,238,35,238,66.667%,27.62431,885.34,11.01
