{
  "uuid": "178b3612-dde4-4c0d-be10-07cfa0e7d627-tr-0-1013",
  "historyId": "Lab6.SpecialtyCreatingTest.SpecialtyCreating",
  "fullName": "Lab6.SpecialtyCreatingTest.SpecialtyCreating",
  "labels": [
    {
      "name": "thread",
      "value": "NonParallelWorker"
    },
    {
      "name": "host",
      "value": "DESKTOP-JPJPG35"
    },
    {
      "name": "package",
      "value": "Lab6"
    },
    {
      "name": "testMethod",
      "value": "SpecialtyCreating"
    },
    {
      "name": "testClass",
      "value": "SpecialtyCreatingTest"
    },
    {
      "name": "tag",
      "value": "NUnit"
    },
    {
      "name": "suite",
      "value": "Specialty"
    }
  ],
  "links": [],
  "name": "SpecialtyCreating",
  "status": "passed",
  "statusDetails": {
    "known": false,
    "muted": false,
    "flaky": false,
    "message": "SpecialtyCreating"
  },
  "stage": "finished",
  "description": "This test checks that specialty could be created successfully\n",
  "steps": [
    {
      "name": "SpecialtyCreating",
      "status": "passed",
      "statusDetails": {
        "known": false,
        "muted": false,
        "flaky": false
      },
      "stage": "finished",
      "steps": [],
      "attachments": [
        {
          "name": "Console Output",
          "source": "43ff801fe94f449abed6bedefa6e185c-attachment.txt",
          "type": "text/plain"
        }
      ],
      "parameters": [],
      "start": 1644221970290,
      "stop": 1644221981607
    }
  ],
  "attachments": [],
  "parameters": [],
  "start": 1644221970290,
  "stop": 1644221981608
}