{
  "uuid": "02b9e145-29f8-47d8-b5f4-434cd43c5e04-tc-0-1002",
  "name": "Lab7.OwnersPageLoadingTest.OwnersPageLoading",
  "children": [
    "3878979f-24ef-48a5-b6c1-d5b25fb6bce2-tr-0-1003"
  ],
  "befores": [
    {
      "name": "Setup",
      "status": "passed",
      "statusDetails": {
        "known": false,
        "muted": false,
        "flaky": false
      },
      "stage": "finished",
      "steps": [],
      "attachments": [],
      "parameters": [],
      "start": 1644222750963,
      "stop": 1644222750963
    }
  ],
  "afters": [
    {
      "name": "TearDown",
      "status": "failed",
      "statusDetails": {
        "known": false,
        "muted": false,
        "flaky": false,
        "message": "OpenQA.Selenium.NoSuchElementException : no such element: Unable to locate element: {\"method\":\"css selector\",\"selector\":\".open li:nth-child(1) > a\"}\n  (Session info: chrome=95.0.4638.54)\r\nTearDown : System.UnauthorizedAccessException : Отказано в доступе по пути \"C:\\Users\\Tina\\Desktop\\filesForUniv\\2021(4)\\labs\\Воронков\\QA\\Лаб6\\Lab4\\TestResults\".",
        "trace": "   в OpenQA.Selenium.WebDriver.UnpackAndThrowOnError(Response errorResponse)\r\n   в OpenQA.Selenium.WebDriver.Execute(String driverCommandToExecute, Dictionary`2 parameters)\r\n   в OpenQA.Selenium.WebDriver.FindElement(String mechanism, String value)\r\n   в OpenQA.Selenium.By.<.ctor>b__11_0(ISearchContext context)\r\n   в OpenQA.Selenium.By.FindElement(ISearchContext context)\r\n   в OpenQA.Selenium.WebDriver.FindElement(By by)\r\n   в Lab7.PageComponents.HeaderComponent.OwnersAllItem() в C:\\Users\\Tina\\Desktop\\filesForUniv\\2021(4)\\labs\\Воронков\\QA\\Лаб7\\Lab4\\PageComponents\\HeaderComponent.cs:строка 13\r\n   в Lab7.PageComponents.HeaderComponent.OpenOwnersPage() в C:\\Users\\Tina\\Desktop\\filesForUniv\\2021(4)\\labs\\Воронков\\QA\\Лаб7\\Lab4\\PageComponents\\HeaderComponent.cs:строка 26\r\n   в Lab7.OwnersPageLoadingTest.OwnersPageLoading() в C:\\Users\\Tina\\Desktop\\filesForUniv\\2021(4)\\labs\\Воронков\\QA\\Лаб7\\Lab4\\Tests\\OwnersPageLoadingTest.cs:строка 24\r\n--TearDown\r\n   в System.IO.__Error.WinIOError(Int32 errorCode, String maybeFullPath)\r\n   в System.IO.FileStream.Init(String path, FileMode mode, FileAccess access, Int32 rights, Boolean useRights, FileShare share, Int32 bufferSize, FileOptions options, SECURITY_ATTRIBUTES secAttrs, String msgPath, Boolean bFromProxy, Boolean useLongPath, Boolean checkHost)\r\n   в System.IO.FileStream..ctor(String path, FileMode mode, FileAccess access, FileShare share, Int32 bufferSize, FileOptions options, String msgPath, Boolean bFromProxy)\r\n   в System.IO.FileStream..ctor(String path, FileMode mode)\r\n   в OpenQA.Selenium.Screenshot.SaveAsFile(String fileName, ScreenshotImageFormat format)\r\n   в Lab7.Tests.BaseTest.TearDown() в C:\\Users\\Tina\\Desktop\\filesForUniv\\2021(4)\\labs\\Воронков\\QA\\Лаб7\\Lab4\\Tests\\BaseTest.cs:строка 40"
      },
      "stage": "finished",
      "steps": [],
      "attachments": [],
      "parameters": [],
      "start": 1644222750965,
      "stop": 1644222750965
    }
  ],
  "links": [],
  "start": 1644222726750,
  "stop": 1644222751057
}