{
  "uuid": "ad1df520-7137-499a-877b-4d5ceef6ab57-tc-0-1010",
  "name": "Lab6.PetTypesPageLoadingTest.PetTypesPageLoading",
  "children": [
    "8e5c6f3e-62ca-45a3-85c6-e467850eadc2-tr-0-1011"
  ],
  "befores": [
    {
      "name": "Setup",
      "status": "passed",
      "statusDetails": {
        "known": false,
        "muted": false,
        "flaky": false
      },
      "stage": "finished",
      "steps": [],
      "attachments": [],
      "parameters": [],
      "start": 1644221970286,
      "stop": 1644221970286
    }
  ],
  "afters": [
    {
      "name": "TearDown",
      "status": "passed",
      "statusDetails": {
        "known": false,
        "muted": false,
        "flaky": false
      },
      "stage": "finished",
      "steps": [],
      "attachments": [],
      "parameters": [],
      "start": 1644221970286,
      "stop": 1644221970286
    }
  ],
  "links": [],
  "start": 1644221958994,
  "stop": 1644221970287
}