{
  "uuid": "08e871fa-cfc4-45f3-913d-d82d534f2dc4-tr-0-1017",
  "historyId": "Lab6.SpecialtyPageLoadingTest.SpecialtyPageLoading",
  "fullName": "Lab6.SpecialtyPageLoadingTest.SpecialtyPageLoading",
  "labels": [
    {
      "name": "thread",
      "value": "NonParallelWorker"
    },
    {
      "name": "host",
      "value": "DESKTOP-JPJPG35"
    },
    {
      "name": "package",
      "value": "Lab6"
    },
    {
      "name": "testMethod",
      "value": "SpecialtyPageLoading"
    },
    {
      "name": "testClass",
      "value": "SpecialtyPageLoadingTest"
    },
    {
      "name": "tag",
      "value": "NUnit"
    },
    {
      "name": "suite",
      "value": "Specialty"
    }
  ],
  "links": [],
  "name": "SpecialtyPageLoading",
  "status": "passed",
  "statusDetails": {
    "known": false,
    "muted": false,
    "flaky": false,
    "message": "SpecialtyPageLoading"
  },
  "stage": "finished",
  "description": "This test checks that specialties page could be loaded successfully\n",
  "steps": [
    {
      "name": "SpecialtyPageLoading",
      "status": "passed",
      "statusDetails": {
        "known": false,
        "muted": false,
        "flaky": false
      },
      "stage": "finished",
      "steps": [],
      "attachments": [
        {
          "name": "Console Output",
          "source": "ba1e9bae596e4c21be22aa05c3737b42-attachment.txt",
          "type": "text/plain"
        }
      ],
      "parameters": [],
      "start": 1644221994686,
      "stop": 1644222007802
    }
  ],
  "attachments": [],
  "parameters": [],
  "start": 1644221994686,
  "stop": 1644222007802
}