{
  "uuid": "3146364a-9975-48a1-b0e0-20611a0e7a30-tc-0-1013",
  "name": "Lab7.PetTypeEditingTest.PetTypeEditing(\"Name2\")",
  "children": [
    "9a1c76e1-d7c0-43d3-a860-64914471f8a5-tr-0-1015"
  ],
  "befores": [
    {
      "name": "Setup",
      "status": "passed",
      "statusDetails": {
        "known": false,
        "muted": false,
        "flaky": false
      },
      "stage": "finished",
      "steps": [],
      "attachments": [],
      "parameters": [],
      "start": 1644222817599,
      "stop": 1644222817599
    }
  ],
  "afters": [
    {
      "name": "TearDown",
      "status": "failed",
      "statusDetails": {
        "known": false,
        "muted": false,
        "flaky": false,
        "message": "OpenQA.Selenium.NoSuchElementException : no such element: Unable to locate element: {\"method\":\"css selector\",\"selector\":\"tbody > tr:last-of-type > td > button.editPet\"}\n  (Session info: chrome=95.0.4638.54)\r\nTearDown : System.UnauthorizedAccessException : Отказано в доступе по пути \"C:\\Users\\Tina\\Desktop\\filesForUniv\\2021(4)\\labs\\Воронков\\QA\\Лаб6\\Lab4\\TestResults\".",
        "trace": "   в OpenQA.Selenium.WebDriver.UnpackAndThrowOnError(Response errorResponse)\r\n   в OpenQA.Selenium.WebDriver.Execute(String driverCommandToExecute, Dictionary`2 parameters)\r\n   в OpenQA.Selenium.WebDriver.FindElement(String mechanism, String value)\r\n   в OpenQA.Selenium.By.<.ctor>b__11_0(ISearchContext context)\r\n   в OpenQA.Selenium.By.FindElement(ISearchContext context)\r\n   в OpenQA.Selenium.WebDriver.FindElement(By by)\r\n   в Lab7.PageObjects.PetTypesPageObject.EditPetType(String name) в C:\\Users\\Tina\\Desktop\\filesForUniv\\2021(4)\\labs\\Воронков\\QA\\Лаб7\\Lab4\\PageObjects\\PetTypesPageObject.cs:строка 44\r\n   в Lab7.PetTypeEditingTest.PetTypeEditing(String name) в C:\\Users\\Tina\\Desktop\\filesForUniv\\2021(4)\\labs\\Воронков\\QA\\Лаб7\\Lab4\\Tests\\PetTypeEditingTest.cs:строка 29\r\n--TearDown\r\n   в System.IO.__Error.WinIOError(Int32 errorCode, String maybeFullPath)\r\n   в System.IO.FileStream.Init(String path, FileMode mode, FileAccess access, Int32 rights, Boolean useRights, FileShare share, Int32 bufferSize, FileOptions options, SECURITY_ATTRIBUTES secAttrs, String msgPath, Boolean bFromProxy, Boolean useLongPath, Boolean checkHost)\r\n   в System.IO.FileStream..ctor(String path, FileMode mode, FileAccess access, FileShare share, Int32 bufferSize, FileOptions options, String msgPath, Boolean bFromProxy)\r\n   в System.IO.FileStream..ctor(String path, FileMode mode)\r\n   в OpenQA.Selenium.Screenshot.SaveAsFile(String fileName, ScreenshotImageFormat format)\r\n   в Lab7.Tests.BaseTest.TearDown() в C:\\Users\\Tina\\Desktop\\filesForUniv\\2021(4)\\labs\\Воронков\\QA\\Лаб7\\Lab4\\Tests\\BaseTest.cs:строка 40"
      },
      "stage": "finished",
      "steps": [],
      "attachments": [],
      "parameters": [],
      "start": 1644222817599,
      "stop": 1644222817599
    }
  ],
  "links": [],
  "start": 1644222751856,
  "stop": 1644222817600
}