{
  "uuid": "d57773da-9751-48d7-b695-d40e3b6b2a4b-tc-0-1028",
  "name": "Lab7.SpecialtyDeletingTest.SpecialtyDeleting",
  "children": [
    "b461f933-838d-4e3f-a6c5-22b5e73c14d1-tr-0-1029"
  ],
  "befores": [
    {
      "name": "Setup",
      "status": "failed",
      "statusDetails": {
        "known": false,
        "muted": false,
        "flaky": false,
        "message": "System.ObjectDisposedException : Доступ к ликвидированному объекту невозможен.\r\nИмя объекта: \"System.Net.Http.HttpClient\".\r\nTearDown : System.ObjectDisposedException : Доступ к ликвидированному объекту невозможен.\r\nИмя объекта: \"System.Net.Http.HttpClient\".",
        "trace": "   в System.Net.Http.HttpClient.CheckDisposed()\r\n   в System.Net.Http.HttpClient.SendAsync(HttpRequestMessage request, HttpCompletionOption completionOption, CancellationToken cancellationToken)\r\n   в System.Net.Http.HttpClient.SendAsync(HttpRequestMessage request)\r\n   в OpenQA.Selenium.Remote.HttpCommandExecutor.<MakeHttpRequest>d__35.MoveNext()\r\n--- Конец трассировка стека из предыдущего расположения, где возникло исключение ---\r\n   в System.Runtime.CompilerServices.TaskAwaiter.ThrowForNonSuccess(Task task)\r\n   в System.Runtime.CompilerServices.TaskAwaiter.HandleNonSuccessAndDebuggerNotification(Task task)\r\n   в System.Runtime.CompilerServices.TaskAwaiter`1.GetResult()\r\n   в OpenQA.Selenium.Remote.HttpCommandExecutor.Execute(Command commandToExecute)\r\n   в OpenQA.Selenium.WebDriver.Execute(String driverCommandToExecute, Dictionary`2 parameters)\r\n   в OpenQA.Selenium.WebDriver.InternalExecute(String driverCommandToExecute, Dictionary`2 parameters)\r\n   в OpenQA.Selenium.Window.set_Size(Size value)\r\n   в Lab7.Tests.BaseTest.Setup() в C:\\Users\\Tina\\Desktop\\filesForUniv\\2021(4)\\labs\\Воронков\\QA\\Лаб7\\Lab4\\Tests\\BaseTest.cs:строка 29\r\n--TearDown\r\n   в System.Net.Http.HttpClient.CheckDisposed()\r\n   в System.Net.Http.HttpClient.SendAsync(HttpRequestMessage request, HttpCompletionOption completionOption, CancellationToken cancellationToken)\r\n   в System.Net.Http.HttpClient.SendAsync(HttpRequestMessage request)\r\n   в OpenQA.Selenium.Remote.HttpCommandExecutor.<MakeHttpRequest>d__35.MoveNext()\r\n--- Конец трассировка стека из предыдущего расположения, где возникло исключение ---\r\n   в System.Runtime.CompilerServices.TaskAwaiter.ThrowForNonSuccess(Task task)\r\n   в System.Runtime.CompilerServices.TaskAwaiter.HandleNonSuccessAndDebuggerNotification(Task task)\r\n   в System.Runtime.CompilerServices.TaskAwaiter`1.GetResult()\r\n   в OpenQA.Selenium.Remote.HttpCommandExecutor.Execute(Command commandToExecute)\r\n   в OpenQA.Selenium.WebDriver.Execute(String driverCommandToExecute, Dictionary`2 parameters)\r\n   в OpenQA.Selenium.WebDriver.GetScreenshot()\r\n   в Lab7.Tests.BaseTest.TearDown() в C:\\Users\\Tina\\Desktop\\filesForUniv\\2021(4)\\labs\\Воронков\\QA\\Лаб7\\Lab4\\Tests\\BaseTest.cs:строка 37"
      },
      "stage": "finished",
      "steps": [],
      "attachments": [],
      "parameters": [],
      "start": 1644222752465,
      "stop": 1644222752465
    }
  ],
  "afters": [
    {
      "name": "TearDown",
      "status": "failed",
      "statusDetails": {
        "known": false,
        "muted": false,
        "flaky": false,
        "message": "System.ObjectDisposedException : Доступ к ликвидированному объекту невозможен.\r\nИмя объекта: \"System.Net.Http.HttpClient\".\r\nTearDown : System.ObjectDisposedException : Доступ к ликвидированному объекту невозможен.\r\nИмя объекта: \"System.Net.Http.HttpClient\".",
        "trace": "   в System.Net.Http.HttpClient.CheckDisposed()\r\n   в System.Net.Http.HttpClient.SendAsync(HttpRequestMessage request, HttpCompletionOption completionOption, CancellationToken cancellationToken)\r\n   в System.Net.Http.HttpClient.SendAsync(HttpRequestMessage request)\r\n   в OpenQA.Selenium.Remote.HttpCommandExecutor.<MakeHttpRequest>d__35.MoveNext()\r\n--- Конец трассировка стека из предыдущего расположения, где возникло исключение ---\r\n   в System.Runtime.CompilerServices.TaskAwaiter.ThrowForNonSuccess(Task task)\r\n   в System.Runtime.CompilerServices.TaskAwaiter.HandleNonSuccessAndDebuggerNotification(Task task)\r\n   в System.Runtime.CompilerServices.TaskAwaiter`1.GetResult()\r\n   в OpenQA.Selenium.Remote.HttpCommandExecutor.Execute(Command commandToExecute)\r\n   в OpenQA.Selenium.WebDriver.Execute(String driverCommandToExecute, Dictionary`2 parameters)\r\n   в OpenQA.Selenium.WebDriver.InternalExecute(String driverCommandToExecute, Dictionary`2 parameters)\r\n   в OpenQA.Selenium.Window.set_Size(Size value)\r\n   в Lab7.Tests.BaseTest.Setup() в C:\\Users\\Tina\\Desktop\\filesForUniv\\2021(4)\\labs\\Воронков\\QA\\Лаб7\\Lab4\\Tests\\BaseTest.cs:строка 29\r\n--TearDown\r\n   в System.Net.Http.HttpClient.CheckDisposed()\r\n   в System.Net.Http.HttpClient.SendAsync(HttpRequestMessage request, HttpCompletionOption completionOption, CancellationToken cancellationToken)\r\n   в System.Net.Http.HttpClient.SendAsync(HttpRequestMessage request)\r\n   в OpenQA.Selenium.Remote.HttpCommandExecutor.<MakeHttpRequest>d__35.MoveNext()\r\n--- Конец трассировка стека из предыдущего расположения, где возникло исключение ---\r\n   в System.Runtime.CompilerServices.TaskAwaiter.ThrowForNonSuccess(Task task)\r\n   в System.Runtime.CompilerServices.TaskAwaiter.HandleNonSuccessAndDebuggerNotification(Task task)\r\n   в System.Runtime.CompilerServices.TaskAwaiter`1.GetResult()\r\n   в OpenQA.Selenium.Remote.HttpCommandExecutor.Execute(Command commandToExecute)\r\n   в OpenQA.Selenium.WebDriver.Execute(String driverCommandToExecute, Dictionary`2 parameters)\r\n   в OpenQA.Selenium.WebDriver.GetScreenshot()\r\n   в Lab7.Tests.BaseTest.TearDown() в C:\\Users\\Tina\\Desktop\\filesForUniv\\2021(4)\\labs\\Воронков\\QA\\Лаб7\\Lab4\\Tests\\BaseTest.cs:строка 37"
      },
      "stage": "finished",
      "steps": [],
      "attachments": [],
      "parameters": [],
      "start": 1644222752466,
      "stop": 1644222752466
    }
  ],
  "links": [],
  "start": 1644222726746,
  "stop": 1644222752471
}