{
  "uuid": "b40aa639-9fa9-4781-96cd-dfa3cdc7e466-tc-0-1020",
  "name": "Lab7.PetTypesPageLoadingTest.PetTypesPageLoading",
  "children": [
    "216c0e4d-13ef-41b0-9b17-c4a4dba75c3d-tr-0-1021"
  ],
  "befores": [
    {
      "name": "Setup",
      "status": "passed",
      "statusDetails": {
        "known": false,
        "muted": false,
        "flaky": false
      },
      "stage": "finished",
      "steps": [],
      "attachments": [],
      "parameters": [],
      "start": 1644222751632,
      "stop": 1644222751632
    }
  ],
  "afters": [
    {
      "name": "TearDown",
      "status": "passed",
      "statusDetails": {
        "known": false,
        "muted": false,
        "flaky": false
      },
      "stage": "finished",
      "steps": [],
      "attachments": [],
      "parameters": [],
      "start": 1644222751632,
      "stop": 1644222751632
    }
  ],
  "links": [],
  "start": 1644222726744,
  "stop": 1644222751636
}