{
  "uuid": "69ce37a3-7f31-4547-9e50-e5d5777cc102-tr-0-1003",
  "historyId": "Lab6.OwnersPageLoadingTest.OwnersPageLoading",
  "fullName": "Lab6.OwnersPageLoadingTest.OwnersPageLoading",
  "labels": [
    {
      "name": "thread",
      "value": "NonParallelWorker"
    },
    {
      "name": "host",
      "value": "DESKTOP-JPJPG35"
    },
    {
      "name": "package",
      "value": "Lab6"
    },
    {
      "name": "testMethod",
      "value": "OwnersPageLoading"
    },
    {
      "name": "testClass",
      "value": "OwnersPageLoadingTest"
    },
    {
      "name": "tag",
      "value": "NUnit"
    },
    {
      "name": "suite",
      "value": "Owner"
    }
  ],
  "links": [],
  "name": "OwnersPageLoading",
  "status": "passed",
  "statusDetails": {
    "known": false,
    "muted": false,
    "flaky": false,
    "message": "OwnersPageLoading"
  },
  "stage": "finished",
  "description": "This test checks that owners page could be loaded successfully\n",
  "steps": [
    {
      "name": "OwnersPageLoading",
      "status": "passed",
      "statusDetails": {
        "known": false,
        "muted": false,
        "flaky": false
      },
      "stage": "finished",
      "steps": [],
      "attachments": [
        {
          "name": "Console Output",
          "source": "4df2fbca04a442718ef7d381ce27d1c4-attachment.txt",
          "type": "text/plain"
        }
      ],
      "parameters": [],
      "start": 1644221911847,
      "stop": 1644221922587
    }
  ],
  "attachments": [],
  "parameters": [],
  "start": 1644221911847,
  "stop": 1644221922587
}