{
  "uuid": "5daf0802-03fc-4bcf-a4b7-2226f10fc729-tc-0-1004",
  "name": "Lab7.PetTypeCreatingTest.PetTypeCreation(\"Dog\")",
  "children": [
    "9ae06a7e-2e5d-4ac9-98db-8f7a6f81d560-tr-0-1006"
  ],
  "befores": [
    {
      "name": "Setup",
      "status": "passed",
      "statusDetails": {
        "known": false,
        "muted": false,
        "flaky": false
      },
      "stage": "finished",
      "steps": [],
      "attachments": [],
      "parameters": [],
      "start": 1644222817676,
      "stop": 1644222817676
    }
  ],
  "afters": [
    {
      "name": "TearDown",
      "status": "failed",
      "statusDetails": {
        "known": false,
        "muted": false,
        "flaky": false,
        "message": "OpenQA.Selenium.NoSuchElementException : no such element: Unable to locate element: {\"method\":\"css selector\",\"selector\":\".addPet\"}\n  (Session info: chrome=95.0.4638.54)\r\nTearDown : System.UnauthorizedAccessException : Отказано в доступе по пути \"C:\\Users\\Tina\\Desktop\\filesForUniv\\2021(4)\\labs\\Воронков\\QA\\Лаб6\\Lab4\\TestResults\".",
        "trace": "   в OpenQA.Selenium.WebDriver.UnpackAndThrowOnError(Response errorResponse)\r\n   в OpenQA.Selenium.WebDriver.Execute(String driverCommandToExecute, Dictionary`2 parameters)\r\n   в OpenQA.Selenium.WebDriver.FindElement(String mechanism, String value)\r\n   в OpenQA.Selenium.By.<.ctor>b__11_0(ISearchContext context)\r\n   в OpenQA.Selenium.By.FindElement(ISearchContext context)\r\n   в OpenQA.Selenium.WebDriver.FindElement(By by)\r\n   в Lab7.PageObjects.PetTypesPageObject.AddPetType(String name) в C:\\Users\\Tina\\Desktop\\filesForUniv\\2021(4)\\labs\\Воронков\\QA\\Лаб7\\Lab4\\PageObjects\\PetTypesPageObject.cs:строка 30\r\n   в Lab7.PetTypeCreatingTest.PetTypeCreation(String name) в C:\\Users\\Tina\\Desktop\\filesForUniv\\2021(4)\\labs\\Воронков\\QA\\Лаб7\\Lab4\\Tests\\PetTypeCreatingTest.cs:строка 31\r\n--TearDown\r\n   в System.IO.__Error.WinIOError(Int32 errorCode, String maybeFullPath)\r\n   в System.IO.FileStream.Init(String path, FileMode mode, FileAccess access, Int32 rights, Boolean useRights, FileShare share, Int32 bufferSize, FileOptions options, SECURITY_ATTRIBUTES secAttrs, String msgPath, Boolean bFromProxy, Boolean useLongPath, Boolean checkHost)\r\n   в System.IO.FileStream..ctor(String path, FileMode mode, FileAccess access, FileShare share, Int32 bufferSize, FileOptions options, String msgPath, Boolean bFromProxy)\r\n   в System.IO.FileStream..ctor(String path, FileMode mode)\r\n   в OpenQA.Selenium.Screenshot.SaveAsFile(String fileName, ScreenshotImageFormat format)\r\n   в Lab7.Tests.BaseTest.TearDown() в C:\\Users\\Tina\\Desktop\\filesForUniv\\2021(4)\\labs\\Воронков\\QA\\Лаб7\\Lab4\\Tests\\BaseTest.cs:строка 40"
      },
      "stage": "finished",
      "steps": [],
      "attachments": [],
      "parameters": [],
      "start": 1644222817676,
      "stop": 1644222817676
    }
  ],
  "links": [],
  "start": 1644222773854,
  "stop": 1644222817678
}