{
  "uuid": "44729284-b9c8-443a-a955-09654ceb32f1-tr-0-1005",
  "historyId": "Lab6.PetTypeCreatingTest.PetTypeCreation",
  "fullName": "Lab6.PetTypeCreatingTest.PetTypeCreation",
  "labels": [
    {
      "name": "thread",
      "value": "NonParallelWorker"
    },
    {
      "name": "host",
      "value": "DESKTOP-JPJPG35"
    },
    {
      "name": "package",
      "value": "Lab6"
    },
    {
      "name": "testMethod",
      "value": "PetTypeCreation"
    },
    {
      "name": "testClass",
      "value": "PetTypeCreatingTest"
    },
    {
      "name": "tag",
      "value": "NUnit"
    },
    {
      "name": "suite",
      "value": "Pet type"
    }
  ],
  "links": [],
  "name": "PetTypeCreation",
  "status": "passed",
  "statusDetails": {
    "known": false,
    "muted": false,
    "flaky": false,
    "message": "PetTypeCreation"
  },
  "stage": "finished",
  "description": "This test checks that pet type could be created successfully\n",
  "steps": [
    {
      "name": "PetTypeCreation",
      "status": "passed",
      "statusDetails": {
        "known": false,
        "muted": false,
        "flaky": false
      },
      "stage": "finished",
      "steps": [],
      "attachments": [
        {
          "name": "Console Output",
          "source": "a73c03c6108d4cafa3878dee51375798-attachment.txt",
          "type": "text/plain"
        }
      ],
      "parameters": [],
      "start": 1644221068116,
      "stop": 1644221077868
    }
  ],
  "attachments": [],
  "parameters": [],
  "start": 1644221068116,
  "stop": 1644221077869
}