{
  "uuid": "2a5d1080-7e0b-47f8-9b79-6dab99975f88-tc-0-1012",
  "name": "Lab6.SpecialtyCreatingTest.SpecialtyCreating",
  "children": [
    "178b3612-dde4-4c0d-be10-07cfa0e7d627-tr-0-1013"
  ],
  "befores": [
    {
      "name": "Setup",
      "status": "passed",
      "statusDetails": {
        "known": false,
        "muted": false,
        "flaky": false
      },
      "stage": "finished",
      "steps": [],
      "attachments": [],
      "parameters": [],
      "start": 1644221981607,
      "stop": 1644221981607
    }
  ],
  "afters": [
    {
      "name": "TearDown",
      "status": "passed",
      "statusDetails": {
        "known": false,
        "muted": false,
        "flaky": false
      },
      "stage": "finished",
      "steps": [],
      "attachments": [],
      "parameters": [],
      "start": 1644221981607,
      "stop": 1644221981607
    }
  ],
  "links": [],
  "start": 1644221970290,
  "stop": 1644221981608
}