{
  "uuid": "8e5c6f3e-62ca-45a3-85c6-e467850eadc2-tr-0-1011",
  "historyId": "Lab6.PetTypesPageLoadingTest.PetTypesPageLoading",
  "fullName": "Lab6.PetTypesPageLoadingTest.PetTypesPageLoading",
  "labels": [
    {
      "name": "thread",
      "value": "NonParallelWorker"
    },
    {
      "name": "host",
      "value": "DESKTOP-JPJPG35"
    },
    {
      "name": "package",
      "value": "Lab6"
    },
    {
      "name": "testMethod",
      "value": "PetTypesPageLoading"
    },
    {
      "name": "testClass",
      "value": "PetTypesPageLoadingTest"
    },
    {
      "name": "tag",
      "value": "NUnit"
    },
    {
      "name": "suite",
      "value": "Pet type"
    }
  ],
  "links": [],
  "name": "PetTypesPageLoading",
  "status": "passed",
  "statusDetails": {
    "known": false,
    "muted": false,
    "flaky": false,
    "message": "PetTypesPageLoading"
  },
  "stage": "finished",
  "description": "This test checks that pet types page could be loaded successfully\n",
  "steps": [
    {
      "name": "PetTypesPageLoading",
      "status": "passed",
      "statusDetails": {
        "known": false,
        "muted": false,
        "flaky": false
      },
      "stage": "finished",
      "steps": [],
      "attachments": [
        {
          "name": "Console Output",
          "source": "9ddf91be840c4027ad5601047d7bcddb-attachment.txt",
          "type": "text/plain"
        }
      ],
      "parameters": [],
      "start": 1644221958994,
      "stop": 1644221970287
    }
  ],
  "attachments": [],
  "parameters": [],
  "start": 1644221958994,
  "stop": 1644221970287
}