{
  "uuid": "03864bfd-bf73-49d7-8464-f5cba7c74e08-tc-0-1013",
  "name": "Lab7.PetTypeEditingTest.PetTypeEditing(\"Name3\")",
  "children": [
    "58688561-db68-4962-8a0d-24ddaa3c0264-tr-0-1016"
  ],
  "befores": [
    {
      "name": "Setup",
      "status": "passed",
      "statusDetails": {
        "known": false,
        "muted": false,
        "flaky": false
      },
      "stage": "finished",
      "steps": [],
      "attachments": [],
      "parameters": [],
      "start": 1644223039177,
      "stop": 1644223039177
    }
  ],
  "afters": [
    {
      "name": "TearDown",
      "status": "passed",
      "statusDetails": {
        "known": false,
        "muted": false,
        "flaky": false
      },
      "stage": "finished",
      "steps": [],
      "attachments": [],
      "parameters": [],
      "start": 1644223039178,
      "stop": 1644223039178
    }
  ],
  "links": [],
  "start": 1644223027708,
  "stop": 1644223039178
}