{
  "uuid": "f6052ac3-e8a0-4751-b470-04b5aa192324-tc-0-1008",
  "name": "Lab6.PetTypeEditingTest.PetTypeEditing",
  "children": [
    "57b07f62-1b88-4b53-a5d5-59a9cd267793-tr-0-1009"
  ],
  "befores": [
    {
      "name": "Setup",
      "status": "passed",
      "statusDetails": {
        "known": false,
        "muted": false,
        "flaky": false
      },
      "stage": "finished",
      "steps": [],
      "attachments": [],
      "parameters": [],
      "start": 1644221096706,
      "stop": 1644221096706
    }
  ],
  "afters": [
    {
      "name": "TearDown",
      "status": "passed",
      "statusDetails": {
        "known": false,
        "muted": false,
        "flaky": false
      },
      "stage": "finished",
      "steps": [],
      "attachments": [],
      "parameters": [],
      "start": 1644221096706,
      "stop": 1644221096706
    }
  ],
  "links": [],
  "start": 1644221087211,
  "stop": 1644221096707
}