Label,# Samples,Average,Median,90% Line,95% Line,99% Line,Min,Max,Error %,Throughput,Received KB/sec,Sent KB/sec
http://20.50.171.10:9966/petclinic/api/pettypes,320,248,167,537,656,1178,42,1211,0.000%,15.39572,736.30,3.91
http://20.50.171.10:9966/petclinic/api/pettypes/12642,320,64,43,83,215,382,34,419,0.000%,15.59530,4.81,4.67
Test,160,625,541,1104,1283,1381,264,1396,0.000%,7.69712,740.98,8.52
TOTAL,800,250,153,680,863,1283,34,1396,0.000%,38.48559,1481.97,17.03
