Label,# Samples,Average,Median,90% Line,95% Line,99% Line,Min,Max,Error %,Throughput,Received KB/sec,Sent KB/sec
http://20.50.171.10:9966/petclinic/api/specialties,160,167,160,195,198,200,146,220,0.000%,7.58258,336.82,1.95
http://20.50.171.10:9966/petclinic/api/specialties/4768,160,37,37,40,42,49,34,52,100.000%,7.62631,1.90,2.64
Test,160,205,199,234,236,239,181,257,100.000%,7.56787,338.05,4.56
TOTAL,480,136,160,217,230,238,34,257,66.667%,22.70362,676.10,9.12
